<?xml version="1.0" encoding="utf-8"?>
<!-- Generator: Adobe Illustrator 16.0.0, SVG Export Plug-In . SVG Version: 6.00 Build 0)  -->
<!DOCTYPE svg PUBLIC "-//W3C//DTD SVG 1.1//EN" "http://www.w3.org/Graphics/SVG/1.1/DTD/svg11.dtd">
<svg version="1.1" id="Layer_1" xmlns="http://www.w3.org/2000/svg" xmlns:xlink="http://www.w3.org/1999/xlink" x="0px" y="0px"
	 width="21.999px" height="21.999px" viewBox="0 0 21.999 21.999" enable-background="new 0 0 21.999 21.999" xml:space="preserve">
<g>
	<circle fill="#034B5E" cx="10.999" cy="10.999" r="9.666"/>
	<g>
		<g>
			<path fill="#FFFFFF" d="M10.502,6.054c0-0.223,0.055-0.386,0.164-0.489s0.246-0.155,0.41-0.155c0.156,0,0.291,0.053,0.404,0.158
				s0.17,0.268,0.17,0.486s-0.057,0.382-0.17,0.489s-0.248,0.161-0.404,0.161c-0.164,0-0.301-0.054-0.41-0.161
				S10.502,6.272,10.502,6.054z M11.557,14.216h-0.973V7.794h0.973V14.216z"/>
		</g>
	</g>
</g>
</svg>
