<?xml version="1.0" encoding="utf-8"?>
<!-- Generator: Adobe Illustrator 16.0.0, SVG Export Plug-In . SVG Version: 6.00 Build 0)  -->
<!DOCTYPE svg PUBLIC "-//W3C//DTD SVG 1.1//EN" "http://www.w3.org/Graphics/SVG/1.1/DTD/svg11.dtd">
<svg version="1.1" id="Layer_1" xmlns="http://www.w3.org/2000/svg" xmlns:xlink="http://www.w3.org/1999/xlink" x="0px" y="0px"
	 width="36px" height="37px" viewBox="0 0 36 37" enable-background="new 0 0 36 37" xml:space="preserve">
<g>
	<g>
		<g>
			<path fill="#808080" d="M17.479,1.256c0.348,0,0.694,0,1.041,0c0.562,0.167,1.162,0.256,1.676,0.516
				c2.096,1.06,3.105,2.836,3.119,5.147c0.027,4.657,0.009,9.313,0.008,13.97c0,0.911-0.197,1.777-0.59,2.602
				c-1.674,3.509-6.267,4.098-8.748,1.113c-0.926-1.115-1.314-2.421-1.312-3.861c0.005-4.56,0.002-9.12,0.002-13.68
				c0-0.213,0-0.426,0.021-0.637c0.246-2.305,1.373-3.974,3.557-4.852C16.642,1.418,17.069,1.359,17.479,1.256z"/>
			<path fill-rule="evenodd" clip-rule="evenodd" fill="#808080" d="M9.493,17.4c0.588-0.011,1.174-0.027,1.762-0.029
				c0.217,0,0.184,0.185,0.184,0.323c0.003,1.128-0.002,2.256,0.004,3.384c0.002,0.337,0.008,0.678,0.055,1.01
				c0.391,2.757,2.382,4.904,5.141,5.415c2.703,0.501,4.979-0.308,6.691-2.499c0.866-1.11,1.234-2.406,1.23-3.811
				c-0.002-1.156,0.008-2.313-0.004-3.471c-0.004-0.276,0.086-0.377,0.364-0.363c0.528,0.027,1.058,0.029,1.587,0.041
				c0,1.485,0,2.971,0,4.456c-0.14,0.677-0.199,1.384-0.432,2.027c-1.158,3.188-3.461,5.028-6.786,5.606
				c-0.233,0.041-0.321,0.106-0.319,0.357c0.014,1.224,0.006,2.447,0.008,3.67c0,0.084,0.01,0.168,0.017,0.279
				c0.247,0,0.476,0,0.704,0c1.262,0,2.524-0.001,3.786,0.001c0.116,0,0.272-0.046,0.269,0.158
				c-0.007,0.597-0.016,1.192-0.023,1.788c-3.82,0-7.639,0-11.458,0c-0.009-0.548-0.008-1.096-0.03-1.643
				c-0.011-0.238,0.062-0.312,0.305-0.311c1.367,0.012,2.735,0.006,4.104,0.006c0.113,0,0.227,0,0.336,0
				c0.018-0.054,0.033-0.08,0.033-0.106c0.002-1.32,0-2.64,0.006-3.96c0.001-0.173-0.095-0.2-0.23-0.225
				c-0.378-0.07-0.763-0.124-1.131-0.232c-2.658-0.782-4.574-2.423-5.594-5.015c-0.291-0.743-0.389-1.562-0.576-2.345
				C9.493,20.409,9.493,18.905,9.493,17.4z"/>
		</g>
	</g>
</g>
</svg>
